Run with arguments:
confTool.py --diff bootstrap.pkl bootstrap_test.pkl
Step 1: reference file #components: 27
Step 2: file to check  #components: 27
Legend:
Differences in components Settings in 1st file Settings in 2nd file
Run with arguments:
confTool.py --diff bootstrap_threaded.pkl bootstrap_threaded_test.pkl
Step 1: reference file #components: 34
Step 2: file to check  #components: 34
Legend:
Differences in components Settings in 1st file Settings in 2nd file
